2764003,Natalia,10,2,1
2703101,Rudy,10,1,0
2765452,Maribel,10,2,1
27640877,Melissa,10,1,1
1830145,Olman,9,1,1
11019707,Jessica,9,2,1
5403859,Efraín,9,1,1
6743214,Heiner,9,2,1
2895622,María José,8,2,0
7415233,Michelle,8,2,1
3255874,Jefferson,8,1,1
2987522,Laura,8,1,1
5947845,Rocío,7,2,1
5214903,Nicole,7,2,1
4012875,Amanda,7,1,1
6254855,Fran,7,1,1
3859654,Joseph,6,2,0
4258996,Rosa,6,1,0
7845300,Cristian,6,1,0
3214587,Norman,6,2,1
2759942,Jaime,5,1,1
1547866,Edward,5,2,1
4632504,Isabel,5,2,1
5405791,Tania,5,1,0
6001754,Jonas,4,1,1
4754462,Martha,4,1,1
7958421,Katharina,4,2,1
7654774,Claudia,4,2,1
7041800,Connor,3,1,0
7058400,Kara,3,1,0
7064200,Markus,3,2,0
5214521,Hank,3,2,1
4788544,Michael,2,1,0
2360048,Jim,2,1,1
2047845,Pam,2,2,1
6598821,Dwight,2,2,1
1480226,Theodore,1,1,0
6082455,Lily,1,1,1
6523140,Marshall,1,2,1
3121870,Barney,1,2,0